coverage==4.4
pytest-cov==2.7.1
Cython==0.29.13
## The following requirements were added by pip freeze:
atomicwrites==1.3.0
attrs==19.1.0
importlib-metadata==0.20
more-itertools==7.2.0
packaging==19.1
pluggy==0.12.0
py==1.8.0
pyparsing==2.4.2
pytest==5.1.2
six==1.12.0
wcwidth==0.1.7
zipp==0.6.0
